…
``` r
library(gapminder)
```

    ## Warning: package 'gapminder' was built under R version 4.0.3

``` r
library(dplyr)

gapminder %>%
  filter(year=="1957")
```

    ## # A tibble: 142 x 6
    ##    country     continent  year lifeExp      pop gdpPercap
    ##    <fct>       <fct>     <int>   <dbl>    <int>     <dbl>
    ##  1 Afghanistan Asia       1957    30.3  9240934      821.
    ##  2 Albania     Europe     1957    59.3  1476505     1942.
    ##  3 Algeria     Africa     1957    45.7 10270856     3014.
    ##  4 Angola      Africa     1957    32.0  4561361     3828.
    ##  5 Argentina   Americas   1957    64.4 19610538     6857.
    ##  6 Australia   Oceania    1957    70.3  9712569    10950.
    ##  7 Austria     Europe     1957    67.5  6965860     8843.
    ##  8 Bahrain     Asia       1957    53.8   138655    11636.
    ##  9 Bangladesh  Asia       1957    39.3 51365468      662.
    ## 10 Belgium     Europe     1957    69.2  8989111     9715.
    ## # ... with 132 more rows
…
    ## # A tibble: 1 x 6
    ##   country continent  year lifeExp        pop gdpPercap
    ##   <fct>   <fct>     <int>   <dbl>      <int>     <dbl>
    ## 1 China   Asia       2002    72.0 1280400000     3119.

``` r
gapminder %>%
  arrange(desc(lifeExp))
```

    ## # A tibble: 1,704 x 6
    ##    country          continent  year lifeExp       pop gdpPercap
    ##    <fct>            <fct>     <int>   <dbl>     <int>     <dbl>
    ##  1 Japan            Asia       2007    82.6 127467972    31656.
    ##  2 Hong Kong, China Asia       2007    82.2   6980412    39725.
    ##  3 Japan            Asia       2002    82   127065841    28605.
    ##  4 Iceland          Europe     2007    81.8    301931    36181.
    ##  5 Switzerland      Europe     2007    81.7   7554661    37506.
    ##  6 Hong Kong, China Asia       2002    81.5   6762476    30209.
    ##  7 Australia        Oceania    2007    81.2  20434176    34435.
    ##  8 Spain            Europe     2007    80.9  40448191    28821.
    ##  9 Sweden           Europe     2007    80.9   9031088    33860.
    ## 10 Israel           Asia       2007    80.7   6426679    25523.
    ## # ... with 1,694 more rows

``` r
gapminder %>%
  filter(year=="1957")%>%arrange(desc(pop))
```

    ## # A tibble: 142 x 6
    ##    country        continent  year lifeExp       pop gdpPercap
    ##    <fct>          <fct>     <int>   <dbl>     <int>     <dbl>
    ##  1 China          Asia       1957    50.5 637408000      576.
    ##  2 India          Asia       1957    40.2 409000000      590.
    ##  3 United States  Americas   1957    69.5 171984000    14847.
    ##  4 Japan          Asia       1957    65.5  91563009     4318.
    ##  5 Indonesia      Asia       1957    39.9  90124000      859.
    ##  6 Germany        Europe     1957    69.1  71019069    10188.
    ##  7 Brazil         Americas   1957    53.3  65551171     2487.
    ##  8 United Kingdom Europe     1957    70.4  51430000    11283.
    ##  9 Bangladesh     Asia       1957    39.3  51365468      662.
    ## 10 Italy          Europe     1957    67.8  49182000     6249.
    ## # ... with 132 more rows
…
